…
```
## $scores
##  [1] 0.56694311 7.03997608 0.92247764 0.40541145 0.48405035 0.72760225
##  [7] 0.76177102 0.41780714 0.67497980 0.09514301 3.08475805 0.21215004
## [13] 0.17315567 0.10919573 0.07507338 0.14631569 0.48912914 0.66064036
## [19] 0.97488467 0.11729166 0.55600728 0.45056768 0.12338559 0.32568921
## [25] 0.79730807 0.60552564 0.02079892 1.02827914 0.25057467 0.31826715
## [31] 2.31504674 0.63971981 0.12366562 0.94366437 0.07428690 0.14455968
## [37] 1.83035030 0.53391786 0.48415632 0.57309350 0.26818435 0.25413660
## [43] 0.21664096 0.82807245 0.42764694 0.04986452 1.91326423 0.54897038
## [49] 0.09345031 0.23486682
## 
## $squared_prediction_errors
## # A tibble: 50 x 8
##    Population    Income Illiteracy `Life Exp` Murder `HS Grad`   Frost
##         <dbl>     <dbl>      <dbl>      <dbl>  <dbl>     <dbl>   <dbl>
##  1    1.05     0.107       0.243    0.222     0.744     0.127  0.429  
##  2   16.8     26.3         0.0765   8.94      6.31     10.4    1.54   
##  3    0.0656   0.000397    0.118    0.755     0.622     0.644  1.20   
##  4    0.439    0.654       0.00439  0.972     0.178     0.517  0.00805
##  5    9.81     0.626       0.0534   0.00119   0.0275    0.709  1.05   
##  6    0.141    0.0162      0.0108   0.714     0.639     0.237  1.00   
##  7    0.0585   2.86        0.972    0.130     0.0421    0.0436 1.01   
##  8    0.697    0.639       0.0980   0.807     0.159     0.0182 0.460  
##  9    0.00689  0.310       0.357    0.0000264 0.0487    0.0476 1.76   
## 10    0.198    0.0499      0.0142   0.000159  0.144     0.154  0.0153 
## # ... with 40 more rows, and 1 more variable: Area <dbl>
## 
## $adjusted_feature_weights
## Population     Income Illiteracy   Life Exp     Murder    HS Grad 
##  0.0000000  0.0000000  0.4365459  0.2310834  0.3514695  0.2209376 
##      Frost       Area 
##  0.2796782  0.0000000
```
…
