Attribute-Wise Learning for Scoring Outliers (ALSO) using Random Forests • ALSO
…
Here we return only the outlier scores. Observations are given out-of-sample scores via 5-fold cross validation.

state_tbl %>%
    mutate(also_score = rf_also) %>%
    mutate(state = rownames(state.x77)) %>%
    arrange(desc(also_score)) %>%
    select(state, also_score) 

## # A tibble: 50 x 2
##    state        also_score
##    <chr>             <dbl>
##  1 Hawaii             4.09
##  2 Alaska             4.03
##  3 Nevada             2.57
##  4 California         2.37
##  5 New Mexico         2.21
##  6 North Dakota       1.63
##  7 Texas              1.58
##  8 Rhode Island       1.57
##  9 Arizona            1.49
## 10 Maine              1.43
## # ... with 40 more rows
…
