Attribute Wise Learning for Scoring Outliers • ALSO
…
Data

states <- state.x77 %>% as_tibble()

states

## # A tibble: 50 x 8
##    Population Income Illiteracy `Life Exp` Murder `HS Grad` Frost    Area
##         <dbl>  <dbl>      <dbl>      <dbl>  <dbl>     <dbl> <dbl>   <dbl>
##  1      3615.  3624.      2.10        69.0  15.1       41.3   20.  50708.
##  2       365.  6315.      1.50        69.3  11.3       66.7  152. 566432.
##  3      2212.  4530.      1.80        70.6   7.80      58.1   15. 113417.
##  4      2110.  3378.      1.90        70.7  10.1       39.9   65.  51945.
##  5     21198.  5114.      1.10        71.7  10.3       62.6   20. 156361.
##  6      2541.  4884.      0.700       72.1   6.80      63.9  166. 103766.
##  7      3100.  5348.      1.10        72.5   3.10      56.0  139.   4862.
##  8       579.  4809.      0.900       70.1   6.20      54.6  103.   1982.
##  9      8277.  4815.      1.30        70.7  10.7       52.6   11.  54090.
## 10      4931.  4091.      2.00        68.5  13.9       40.6   60.  58073.
## # ... with 40 more rows
…
Present of outliers reflected in the severe right skewness of the distribution of outlier scores.

Prediction errors

Squared prediction errors for all n points across all k feature models.

rf_also$squared_prediction_errors

## # A tibble: 50 x 8
##    Population    Income Illiteracy `Life Exp`   Murder  `HS Grad`   Frost
##         <dbl>     <dbl>      <dbl>      <dbl>    <dbl>      <dbl>   <dbl>
##  1  0.0174    0.00423     0.00502     0.0225  0.209    0.0000320  0.107  
##  2  1.25      1.70        0.126       0.0762  0.139    0.442      0.149  
##  3  0.109     0.0104      0.272       0.0147  0.0426   0.0635     0.399  
##  4  0.113     0.155       0.00189     0.174   0.000648 0.212      0.00301
##  5  3.14      0.140       0.0530      0.107   0.223    0.129      0.429  
##  6  0.0000569 0.0784      0.000277    0.128   0.0715   0.105      0.646  
##  7  0.0267    0.326       0.0251      0.0614  0.0292   0.00000252 0.0646 
##  8  0.220     0.00873     0.0324      0.295   0.00407  0.00236    0.119  
##  9  0.0520    0.0000407   0.0132      0.00112 0.0138   0.0000270  0.566  
## 10  0.00209   0.106       0.0110      0.159   0.0576   0.0712     0.0301 
## # ... with 40 more rows, and 1 more variable: Area <dbl>
…
